2 2 2 2 2 2 2 2 2 2 2 2 2 2 2 2 2 2 2 2 2
2 B 0 b 2 0 B 0 0 0 0 0 0 0 0 0 0 0 0 0 2
2 0 0 0 2 0 0 0 0 0 0 0 0 0 0 0 0 0 0 0 2
2 0 0 0 2 0 0 0 0 0 0 0 0 0 0 2 2 2 2 2 2
2 0 0 0 2 0 0 0 0 0 0 0 0 0 0 0 0 0 0 0 2
2 0 0 0 2 0 0 0 0 0 2 0 0 2 0 0 0 0 0 0 2
2 0 0 0 2 0 0 0 0 0 2 0 0 2 0 0 0 0 0 0 2
2 0 0 0 2 0 0 0 0 0 2 0 0 2 0 0 0 0 0 0 2
2 0 0 0 2 0 0 0 0 0 2 0 0 2 0 0 0 0 0 0 2
2 0 0 0 2 B B 0 0 0 2 0 0 2 0 0 0 0 0 0 2
2 0 0 0 2 2 2 2 2 2 2 0 0 2 0 0 0 0 0 0 2
2 0 0 0 0 0 0 0 0 0 0 0 0 2 0 0 0 0 0 0 2
2 0 0 0 0 0 0 0 0 0 0 0 0 2 0 0 0 0 0 0 2
2 0 0 0 2 2 2 2 2 2 2 2 2 2 0 0 2 2 2 2 2
2 0 0 0 2 B B 0 0 0 0 0 0 0 0 0 0 0 0 0 2
2 0 0 0 2 0 0 0 0 0 0 0 0 0 0 0 0 0 0 0 2
2 0 0 0 2 0 0 0 0 0 0 0 0 0 0 0 2 2 0 0 2
2 0 0 0 0 0 0 0 0 0 0 0 0 0 0 0 2 0 0 0 2
2 B B 0 0 0 0 0 0 0 0 0 0 0 0 0 2 0 0 p 2
2 2 2 2 2 2 2 2 2 2 2 2 2 2 2 2 2 2 2 2 2 