2 2 2 2 2 2 2 2 2 2 2 2 2 2 2 2 2 2
2 i M 0 0 0 0 0 0 0 0 0 0 0 h 2 M 2
2 h 0 0 0 0 0 2 0 0 0 0 0 0 M 2 0 2
2 2 2 2 2 2 2 2 0 0 0 0 0 2 2 2 0 2
2 M 0 h 0 0 0 m 0 0 0 0 0 0 0 0 0 2
2 0 0 0 0 0 0 m 0 0 0 0 0 0 0 0 0 2
2 0 0 0 0 2 0 0 0 0 0 0 0 0 0 0 0 2
2 0 h 0 0 2 0 0 2 2 2 2 2 2 0 0 0 2
2 0 0 0 0 2 0 0 2 h M 0 0 2 0 0 0 2
2 i 0 0 2 2 0 0 2 M 0 0 0 2 0 0 0 2
2 0 0 0 0 0 0 0 0 0 i 2 2 2 0 0 0 2
2 h M 0 0 0 0 0 0 d 0 0 0 2 0 0 p 2
2 2 2 2 2 2 2 2 2 2 2 2 2 2 2 2 2 2