2 2 2 2 2 2 2 2 2 2 2 2 2 2 2 2 2
2 i 0 0 0 0 0 0 x x 2 0 0 0 h h 2
2 i 0 0 0 0 0 0 0 0 2 0 0 0 0 0 2
2 h 0 0 0 0 2 0 0 0 2 0 0 2 0 0 2
2 h 0 0 0 0 2 h 0 0 2 0 0 2 0 0 2
2 h 0 0 0 0 2 h 0 0 2 0 0 2 0 0 2
2 0 0 d 0 0 2 0 0 0 2 0 0 2 0 0 2
2 0 0 0 0 0 2 0 0 0 2 0 0 2 0 0 2
2 0 0 0 0 0 2 0 0 0 2 0 0 2 0 0 2
2 0 0 0 0 0 2 0 0 0 2 0 0 2 0 0 2
2 0 0 0 0 0 2 0 0 0 2 0 0 2 0 0 2
2 0 0 0 0 0 2 0 0 0 0 0 0 2 5 0 2
2 i j 0 0 0 2 0 0 0 0 h h 2 0 p 2
2 2 2 2 2 2 2 2 2 2 2 2 2 2 2 2 2